{
  "input":{
    "text":"Мистер и миссис Дурсль"
  },
  "voice":{
    "languageCode":"ru-RU",
    "name":"ru-RU-Standard-B",
    "ssmlGender":"MALE"
  },
  "audioConfig":{
    "audioEncoding":"MP3"
  }
}

